[ACCOUNT]
character-username = dream desire
character-password = lol

[CHARACTER]
character-height = 0
character-posx = 2777
character-posy = 9336
character-rights = 3
character-title = 0
crystal-bow-shots = 0
skull-timer = -1
magic-book = 0
pet = -1
gambles = 3
KC = 0
DC = 0
ban-start = 0
ban-end = 0
special-amount = 10.0
selected-coffin = 0
votePoints = 0
pkPoints = 0
teleblock-length = 0
pc-points = 0
killStreak = 0
isDonator = 0
serverSupport = 0
slayerTask = 2889
taskAmount = 18
magePoints = 1
autoRet = 1
barrowskillcount = 0
flagged = false
wave = 0
gwkc = 0
mute-end = 0
fightMode = 2
void = 0	0	0	0	0

[EQUIPMENT]
character-equip = 0	6656	1	
character-equip = 1	6570	1	
character-equip = 2	1704	1	
character-equip = 3	861	1	
character-equip = 4	6654	1	
character-equip = 5	-1	1	
character-equip = 6	-1	0	
character-equip = 7	6655	1	
character-equip = 8	-1	0	
character-equip = 9	7462	1	
character-equip = 10	3105	1	
character-equip = 11	-1	0	
character-equip = 12	2550	1	
character-equip = 13	-1	999769	

[LOOK]
character-look = 0	0
character-look = 1	8
character-look = 2	23
character-look = 3	27
character-look = 4	33
character-look = 5	38
character-look = 6	42
character-look = 7	15
character-look = 8	7
character-look = 9	7
character-look = 10	7
character-look = 11	0
character-look = 12	2

[SKILLS]
character-skill = 0	99	17112436
character-skill = 1	99	13040436
character-skill = 2	99	13948936
character-skill = 3	99	15178327
character-skill = 4	99	13905136
character-skill = 5	99	13038436
character-skill = 6	99	13608087
character-skill = 7	99	13034436
character-skill = 8	16	2750
character-skill = 9	1	0
character-skill = 10	1	0
character-skill = 11	30	14000
character-skill = 12	1	0
character-skill = 13	1	0
character-skill = 14	1	0
character-skill = 15	1	0
character-skill = 16	73	1080000
character-skill = 17	99	13034436
character-skill = 18	99	13034436
character-skill = 19	1	0
character-skill = 20	1	0
character-skill = 21	1	0
character-skill = 22	1	0
character-skill = 23	1	0
character-skill = 24	1	0

[ITEMS]
character-item = 0	893	239
character-item = 1	566	797
character-item = 2	567	985
character-item = 3	4721	1
character-item = 4	3213	1
character-item = 5	4891	1
character-item = 6	561	980
character-item = 7	3141	1
character-item = 8	4088	1
character-item = 9	1306	1
character-item = 10	4676	1
character-item = 11	1051	1
character-item = 12	563	992
character-item = 13	2416	1
character-item = 14	3843	1
character-item = 15	996	11387787
character-item = 16	1114	1
character-item = 17	4154	1
character-item = 18	1232	1
character-item = 19	560	1000
character-item = 20	4563	1
character-item = 22	556	768
character-item = 23	4152	1
character-item = 25	558	749
character-item = 26	1566	1
character-item = 27	557	579

[BANK]
character-bank = 0	1154	3
character-bank = 1	1068	2
character-bank = 2	1158	2
character-bank = 3	880	2
character-bank = 4	894	1
character-bank = 5	1116	1
character-bank = 6	558	21
character-bank = 7	561	354
character-bank = 8	4152	1
character-bank = 9	4154	1
character-bank = 10	6107	2
character-bank = 11	1232	1
character-bank = 12	1742	17
character-bank = 13	554	1
character-bank = 14	555	805
character-bank = 15	557	1
character-bank = 16	559	1006
character-bank = 17	560	1
character-bank = 18	562	954
character-bank = 19	1566	2
character-bank = 20	866	1
character-bank = 21	871	1
character-bank = 22	1352	2
character-bank = 23	862	1
character-bank = 24	869	1
character-bank = 25	1338	1
character-bank = 26	1088	1
character-bank = 27	563	2
character-bank = 28	649	1
character-bank = 29	2943	1
character-bank = 30	4132	1
character-bank = 31	2925	1
character-bank = 32	392	84522
character-bank = 33	2979	1
character-bank = 34	639	1
character-bank = 35	3750	1
character-bank = 36	3482	1
character-bank = 37	659	1
character-bank = 38	2492	1
character-bank = 39	2367	1
character-bank = 40	1754	2
character-bank = 41	543	1
character-bank = 42	545	1
character-bank = 43	591	1
character-bank = 44	6529	1
character-bank = 45	4092	1
character-bank = 46	4094	1
character-bank = 47	4090	2
character-bank = 48	1624	5
character-bank = 49	1756	1
character-bank = 50	1740	9993
character-bank = 51	5577	1
character-bank = 52	1164	1
character-bank = 53	1734	1
character-bank = 54	1735	1000
character-bank = 55	567	99980
character-bank = 56	5576	1
character-bank = 57	3845	1
character-bank = 58	5575	1
character-bank = 59	4828	1
character-bank = 60	6523	4
character-bank = 61	768	1
character-bank = 62	304	1
character-bank = 63	6110	1
character-bank = 64	6112	1
character-bank = 65	1334	1
character-bank = 66	633	1
character-bank = 67	6111	1
character-bank = 68	4588	1
character-bank = 69	1620	3
character-bank = 70	3390	1
character-bank = 71	3388	1
character-bank = 72	2498	1
character-bank = 73	2504	1
character-bank = 74	2658	1
character-bank = 75	4758	1
character-bank = 76	4756	1
character-bank = 77	1541	1
character-bank = 78	566	525
character-bank = 79	556	156
character-bank = 80	564	1013
character-bank = 81	2415	1
character-bank = 82	1332	3
character-bank = 83	1348	1
character-bank = 84	1374	1
character-bank = 85	6109	1
character-bank = 86	1062	1
character-bank = 87	6108	1
character-bank = 88	1100	1
character-bank = 89	2463	1
character-bank = 90	1726	1
character-bank = 91	1433	1
character-bank = 92	1150	1
character-bank = 93	6525	1
character-bank = 94	1128	1
character-bank = 95	4586	1
character-bank = 96	1020	1
character-bank = 98	6189	1
character-bank = 99	565	997
character-bank = 101	3754	1
character-bank = 102	1200	1
character-bank = 103	3752	1
character-bank = 104	2413	1
character-bank = 105	1080	1
character-bank = 106	1053	1
character-bank = 107	3061	1
character-bank = 108	4885	1
character-bank = 109	4903	1
character-bank = 110	4981	1
character-bank = 111	4999	1
character-bank = 112	4873	1
character-bank = 113	4879	1
character-bank = 114	4861	1

[FRIENDS]
character-friend = 0	105366271936615
character-friend = 1	15486249045
character-friend = 2	773526

[EOF]

